[{
	"trending": [
		{
		"title": "The Voice - South Africa",
		"synopsis": "Four famous musicians search for the best voices in America and will mentor these singers to become artists. America will decide which singer will be worthy of the grand prize",
		"year": 2017,
		"runningtime": "60",
		"rating": "PG-13",
		"thumbnail": "src/assets/thumbnails/trending/thevoice.png",
		"slider": ["src/assets/bk/v1.jpg", "src/assets/bk/v2.jpg", "src/assets/bk/v3.jpg"]
	},
		{
		"title": "Billions",
		"synopsis": "A fictional drama that takes an insider look at the world of high finance by tracking the approaching collision between two titanic figures - the hard charging, politically savvy U.S. Attorney Chuck",
		"year": 2015,
		"runningtime": "70",
		"rating": "R-rated",
		"thumbnail": "src/assets/thumbnails/trending/billions.jpg",
		"slider": ["src/assets/bk/b1.jpg", "src/assets/bk/b2.jpg", "src/assets/bk/b3.jpg"]
	},
	{
		"title": "Game of Thrones",
		"synopsis": "In the North, after thousands of years of disappearance, the Others are back. The War of Five Kings (Robb, Joffrey, Stannis, Renly, Balon Greyjoy) is raging. In the East, Dany is using her dragons and amassing an army to return to Westeros and reclaim her throne",
		"year": 2013,
		"runningtime": "60",
		"rating": "PG-17",
		"thumbnail": "src/assets/thumbnails/trending/got.jpg",
		"slider": ["src/assets/bk/got1.jpg", "src/assets/bk/got2.jpg", "src/assets/bk/got3.jpg"]

	},
	{
		"title": "American Gods",
		"synopsis": "Adapted from the award-winning novel, American Gods posits a different kind of war brewing--one between Old Gods and New. The traditional Old Gods, with mythological roots from around the world",
		"year": 2017,
		"runningtime": "50",
		"rating": "X-rated",
		"thumbnail": "src/assets/thumbnails/trending/americangods.jpg",
		"slider": ["src/assets/bk/ag1.jpg", "src/assets/bk/ag2.jpg", "src/assets/bk/ag3.jpg"]

	},
	{
		"title": "Madam Secretary",
		"synopsis": "Stars Tea Leoni as Elizabeth McCord, the shrewd, determined, newly appointed Secretary of State who drives international diplomacy, battles office politics and circumvents protocol as she negotiates global and domestic issues",
		"year": 2013,
		"runningtime": "45",
		"rating": "PG-13",
		"thumbnail": "src/assets/thumbnails/trending/madamsecretary.jpg",
		"slider": ["src/assets/bk/md1.jpg", "src/assets/bk/md2.jpg", "src/assets/bk/md3.jpg"]

	},
	{
		"title": "Modern Family",
		"synopsis": "Phil Dunphy is a loving husband/devoted dad who dreams big while making the most out of the little things in life. Claire is his grounded, responsible, regimented (but in a good way) wife",
		"year": 2005,
		"runningtime": "30",
		"rating": "PG",
		"thumbnail": "src/assets/thumbnails/trending/modernfamily.jpg",
		"slider": ["src/assets/bk/mf1.jpg", "src/assets/bk/mf2.jpg", "src/assets/bk/mf3.jpg"]

	},
	{
		"title": "The Blacklist",
		"synopsis": "Big while making the most out of the little things in life. Claire is his grounded, responsible, regimented (but in a good way) wife",
		"year": 2012,
		"runningtime": "60",
		"rating": "PG-17",
		"thumbnail": "src/assets/thumbnails/trending/theblacklist.jpg",
		"slider": ["src/assets/bk/bl1.jpg", "src/assets/bk/bl2.jpg", "src/assets/bk/bl3.jpg"]

	},
	{
		"title": "The Big Bang Theory",
		"synopsis": "Leonard and Sheldon are brilliant physicists - geniuses in the laboratory, but socially challenged everywhere else. Enter beautiful, street-smart neighbor, Penny, who aims to teach them a thing or two about life",
		"year": 2001,
		"runningtime": "60",
		"rating": "PG",
		"thumbnail": "src/assets/thumbnails/trending/bigbang.jpg",
		"slider": ["src/assets/bk/bbt1.jpg", "src/assets/bk/bbt2.jpg", "src/assets/bk/bbt3.jpg"]

	},
	{
		"title": "Notorious",
		"synopsis": "Centers on the symbiotic relationship between charismatic defense attorney Jake Gregorian (Daniel Sunjata) and powerhouse TV producer Julia George (Piper Perabo), as they attempt to control the media, the justice system and ultimately each other",
		"year": 2014,
		"runningtime": "45",
		"rating": "PG-13",
		"thumbnail": "src/assets/thumbnails/trending/notorious.jpg",
		"slider": ["src/assets/bk/n1.jpg", "src/assets/bk/n2.jpg", "src/assets/bk/n3.jpg"]

	},
	{
		"title": "Fargo",
		"synopsis": "Set in 2010, the next installment of Fargo will feature an all-new true crime tale centered on Emmit and his slightly younger brother Ray Stussy (Ewan McGregor)",
		"year": 2015,
		"runningtime": "30",
		"rating": "PG",
		"thumbnail": "src/assets/thumbnails/trending/fargo.jpg",
		"slider": ["src/assets/bk/fargo1.jpg", "src/assets/bk/fargo2.jpg", "src/assets/bk/fargo3.jpg"]

	}
],
"mustwatchmovies": [
		{
		"title": "The Martian",
		"synopsis": "Four famous musicians search for the best voices in America and will mentor these singers to become artists. America will decide which singer will be worthy of the grand prize",
		"runningtime": "120",
		"rating": "PG-13",
		"year": 2016,
		"thumbnail": "src/assets/thumbnails/mustwatchmovies/themartian.jpg",
		"slider": ["src/assets/bk2/tm1.jpg", "src/assets/bk2/tm2.jpg", "src/assets/bk2/tm3.jpg"]
	},
	{
		"title": "Kubo and the Two Strings",
		"synopsis": "In the North, after thousands of years of disappearance, the Others are back. The War of Five Kings (Robb, Joffrey, Stannis, Renly, Balon Greyjoy) is raging. In the East, Dany is using her dragons and amassing an army to return to Westeros and reclaim her throne",
		"year": 2016,
		"runningtime": "120",
		"rating": "PG",
		"thumbnail": "src/assets/thumbnails/mustwatchmovies/kubo.jpg",
		"slider": ["src/assets/bk2/kubo1.jpg", "src/assets/bk2/kubo2.jpg", "src/assets/bk2/kubo3.jpg"]

	},
	{
		"title": "Batman vs. Superman",
		"synopsis": "Adapted from the award-winning novel, American Gods posits a different kind of war brewing--one between Old Gods and New. The traditional Old Gods, with mythological roots from around the world",
		"year": 2017,
		"runningtime": "160",
		"rating": "X-rated",
		"thumbnail": "src/assets/thumbnails/mustwatchmovies/batsuperman.jpg",
		"slider": ["src/assets/bk2/super1.jpg", "src/assets/bk2/super2.jpg", "src/assets/bk2/super3.jpg"]

	},
	{
		"title": "Captain America : Civil War",
		"synopsis": "Stars Tea Leoni as Elizabeth McCord, the shrewd, determined, newly appointed Secretary of State who drives international diplomacy, battles office politics and circumvents protocol as she negotiates global and domestic issues",
		"year": 2013,
		"runningtime": "45",
		"rating": "PG-13",
		"thumbnail": "src/assets/thumbnails/mustwatchmovies/cpamerica.jpg",
		"slider": ["src/assets/bk2/ca1.jpg", "src/assets/bk2/ca2.jpg", "src/assets/bk2/ca3.jpg"]

	},
	{
		"title": "Steve Jobs",
		"synopsis": "A fictional drama that takes an insider look at the world of high finance by tracking the approaching collision between two titanic figures - the hard charging, politically savvy U.S. Attorney Chuck",
		"year": 2014,
		"runningtime": "220",
		"rating": "PG",
		"thumbnail": "src/assets/thumbnails/mustwatchmovies/stevejobs.jpg",
		"slider": ["src/assets/bk2/st1.jpg", "src/assets/bk2/st2.jpg", "src/assets/bk2/st3.jpg"]
	},
	{
		"title": "Warcraft",
		"synopsis": "Big while making the most out of the little things in life. Claire is his grounded, responsible, regimented (but in a good way) wife",
		"year": 2016,
		"runningtime": "60",
		"rating": "PG-17",
		"thumbnail": "src/assets/thumbnails/mustwatchmovies/warcraft.jpg",
		"slider": ["src/assets/bk2/wc1.jpg", "src/assets/bk2/wc2.jpg", "src/assets/bk2/wc3.jpg"]

	},
	{
		"title": "The Magnificent Seven",
		"synopsis": "Leonard and Sheldon are brilliant physicists - geniuses in the laboratory, but socially challenged everywhere else. Enter beautiful, street-smart neighbor, Penny, who aims to teach them a thing or two about life",
		"year": 2001,
		"runningtime": "160",
		"rating": "PG",
		"thumbnail": "src/assets/thumbnails/mustwatchmovies/theseven.jpg",
		"slider": ["src/assets/bk2/m1.jpg", "src/assets/bk2/m2.jpg", "src/assets/bk2/m3.jpg"]

	},
	{
		"title": "Central Intelligence",
		"synopsis": "Centers on the symbiotic relationship between charismatic defense attorney Jake Gregorian (Daniel Sunjata) and powerhouse TV producer Julia George (Piper Perabo), as they attempt to control the media, the justice system and ultimately each other",
		"year": 2014,
		"runningtime": "145",
		"rating": "PG-13",
		"thumbnail": "src/assets/thumbnails/mustwatchmovies/centrali.jpg",
		"slider": ["src/assets/bk2/ci1.jpg", "src/assets/bk2/ci2.jpg", "src/assets/bk2/ci3.jpg"]

	},
	{
		"title": "Peter's Dragon",
		"synopsis": "Set in 2010, the next installment of Fargo will feature an all-new true crime tale centered on Emmit and his slightly younger brother Ray Stussy (Ewan McGregor)",
		"year": 2015,
		"runningtime": "30",
		"rating": "PG",
		"thumbnail": "src/assets/thumbnails/mustwatchmovies/peters.jpg",
		"slider": ["src/assets/bk2/p1.jpg", "src/assets/bk2/p2.jpg", "src/assets/bk2/p3.jpg"]

	},
	{
		"title": "Gods of Egypt",
		"synopsis": "Set in 2010, the next installment of Fargo will feature an all-new true crime tale centered on Emmit and his slightly younger brother Ray Stussy (Ewan McGregor)",
		"year": 2015,
		"runningtime": "30",
		"rating": "PG",
		"thumbnail": "src/assets/thumbnails/mustwatchmovies/godegypt.jpg",
		"slider": ["src/assets/bk2/goe1.jpg", "src/assets/bk2/goe2.jpg", "src/assets/bk2/goe3.jpg"]

	}
	
],
"newandreturning": [
		{
		"title": "Power",
		"synopsis": "Four famous musicians search for the best voices in America and will mentor these singers to become artists. America will decide which singer will be worthy of the grand prize",
		"runningtime": "120",
		"rating": "PG-13",
		"year": 2016,
		"thumbnail": "src/assets/thumbnails/newandreturning/power.jpg",
		"slider": ["src/assets/bk2/tm1.jpg", "src/assets/bk2/tm2.jpg", "src/assets/bk2/tm3.jpg"]
	},
	{
		"title": "House of Cards",
		"synopsis": "In the North, after thousands of years of disappearance, the Others are back. The War of Five Kings (Robb, Joffrey, Stannis, Renly, Balon Greyjoy) is raging. In the East, Dany is using her dragons and amassing an army to return to Westeros and reclaim her throne",
		"year": 2016,
		"runningtime": "60",
		"rating": "PG",
		"thumbnail": "src/assets/thumbnails/newandreturning/hoc.jpg",
		"slider": ["src/assets/bk2/kubo1.jpg", "src/assets/bk2/kubo2.jpg", "src/assets/bk2/kubo3.jpg"]

	},
	{
		"title": "The Son",
		"synopsis": "Adapted from the award-winning novel, American Gods posits a different kind of war brewing--one between Old Gods and New. The traditional Old Gods, with mythological roots from around the world",
		"year": 2017,
		"runningtime": "160",
		"rating": "X-rated",
		"thumbnail": "src/assets/thumbnails/newandreturning/theson.jpg",
		"slider": ["src/assets/bk2/super1.jpg", "src/assets/bk2/super2.jpg", "src/assets/bk2/super3.jpg"]

	},
	{
		"title": "Gotham",
		"synopsis": "Stars Tea Leoni as Elizabeth McCord, the shrewd, determined, newly appointed Secretary of State who drives international diplomacy, battles office politics and circumvents protocol as she negotiates global and domestic issues",
		"year": 2013,
		"runningtime": "45",
		"rating": "PG-13",
		"thumbnail": "src/assets/thumbnails/newandreturning/gotham.jpg",
		"slider": ["src/assets/bk2/ca1.jpg", "src/assets/bk2/ca2.jpg", "src/assets/bk2/ca3.jpg"]

	},
	{
		"title": "Veep",
		"synopsis": "A fictional drama that takes an insider look at the world of high finance by tracking the approaching collision between two titanic figures - the hard charging, politically savvy U.S. Attorney Chuck",
		"year": 2014,
		"runningtime": "220",
		"rating": "PG",
		"thumbnail": "src/assets/thumbnails/newandreturning/veep.jpg",
		"slider": ["src/assets/bk2/st1.jpg", "src/assets/bk2/st2.jpg", "src/assets/bk2/st3.jpg"]
	},
	{
		"title": "Binne Landers",
		"synopsis": "Big while making the most out of the little things in life. Claire is his grounded, responsible, regimented (but in a good way) wife",
		"year": 2016,
		"runningtime": "60",
		"rating": "PG-17",
		"thumbnail": "src/assets/thumbnails/newandreturning/binnelanders.jpg",
		"slider": ["src/assets/bk2/wc1.jpg", "src/assets/bk2/wc2.jpg", "src/assets/bk2/wc3.jpg"]

	},
	{
		"title": "Silicon Valley",
		"synopsis": "Leonard and Sheldon are brilliant physicists - geniuses in the laboratory, but socially challenged everywhere else. Enter beautiful, street-smart neighbor, Penny, who aims to teach them a thing or two about life",
		"year": 2001,
		"runningtime": "160",
		"rating": "PG",
		"thumbnail": "src/assets/thumbnails/newandreturning/sv.jpg",
		"slider": ["src/assets/bk2/m1.jpg", "src/assets/bk2/m2.jpg", "src/assets/bk2/m3.jpg"]

	},
	{
		"title": "Lucifer",
		"synopsis": "Centers on the symbiotic relationship between charismatic defense attorney Jake Gregorian (Daniel Sunjata) and powerhouse TV producer Julia George (Piper Perabo), as they attempt to control the media, the justice system and ultimately each other",
		"year": 2014,
		"runningtime": "145",
		"rating": "PG-13",
		"thumbnail": "src/assets/thumbnails/newandreturning/lucifer.jpg",
		"slider": ["src/assets/bk2/ci1.jpg", "src/assets/bk2/ci2.jpg", "src/assets/bk2/ci3.jpg"]

	},
	{
		"title": "My Perfect Wedding",
		"synopsis": "Set in 2010, the next installment of Fargo will feature an all-new true crime tale centered on Emmit and his slightly younger brother Ray Stussy (Ewan McGregor)",
		"year": 2015,
		"runningtime": "30",
		"rating": "PG",
		"thumbnail": "src/assets/thumbnails/newandreturning/wedding.jpg",
		"slider": ["src/assets/bk2/p1.jpg", "src/assets/bk2/p2.jpg", "src/assets/bk2/p3.jpg"]

	},
	{
		"title": "Still Star Crossed",
		"synopsis": "Set in 2010, the next installment of Fargo will feature an all-new true crime tale centered on Emmit and his slightly younger brother Ray Stussy (Ewan McGregor)",
		"year": 2015,
		"runningtime": "30",
		"rating": "PG",
		"thumbnail": "src/assets/thumbnails/newandreturning/ssc.jpg",
		"slider": ["src/assets/bk2/goe1.jpg", "src/assets/bk2/goe2.jpg", "src/assets/bk2/goe3.jpg"]

	}
],
"superstacks": [
		{
		"title": "The Odd Couple",
		"synopsis": "Four famous musicians search for the best voices in America and will mentor these singers to become artists. America will decide which singer will be worthy of the grand prize",
		"runningtime": "120",
		"rating": "PG-13",
		"year": 2016,
		"thumbnail": "src/assets/thumbnails/ss/theoddc.jpg",
		"slider": ["src/assets/bk2/tm1.jpg", "src/assets/bk2/tm2.jpg", "src/assets/bk2/tm3.jpg"]
	},
	{
		"title": "Igazi",
		"synopsis": "In the North, after thousands of years of disappearance, the Others are back. The War of Five Kings (Robb, Joffrey, Stannis, Renly, Balon Greyjoy) is raging. In the East, Dany is using her dragons and amassing an army to return to Westeros and reclaim her throne",
		"year": 2016,
		"runningtime": "60",
		"rating": "PG",
		"thumbnail": "src/assets/thumbnails/ss/igazi.jpg",
		"slider": ["src/assets/bk2/kubo1.jpg", "src/assets/bk2/kubo2.jpg", "src/assets/bk2/kubo3.jpg"]

	},
	{
		"title": "Code Black",
		"synopsis": "Adapted from the award-winning novel, American Gods posits a different kind of war brewing--one between Old Gods and New. The traditional Old Gods, with mythological roots from around the world",
		"year": 2017,
		"runningtime": "160",
		"rating": "X-rated",
		"thumbnail": "src/assets/thumbnails/ss/codeblack.jpg",
		"slider": ["src/assets/bk2/super1.jpg", "src/assets/bk2/super2.jpg", "src/assets/bk2/super3.jpg"]

	},
	{
		"title": "Broad Church",
		"synopsis": "Stars Tea Leoni as Elizabeth McCord, the shrewd, determined, newly appointed Secretary of State who drives international diplomacy, battles office politics and circumvents protocol as she negotiates global and domestic issues",
		"year": 2013,
		"runningtime": "45",
		"rating": "PG-13",
		"thumbnail": "src/assets/thumbnails/ss/broadc.jpg",
		"slider": ["src/assets/bk2/ca1.jpg", "src/assets/bk2/ca2.jpg", "src/assets/bk2/ca3.jpg"]

	},
	{
		"title": "Isibaya",
		"synopsis": "A fictional drama that takes an insider look at the world of high finance by tracking the approaching collision between two titanic figures - the hard charging, politically savvy U.S. Attorney Chuck",
		"year": 2014,
		"runningtime": "220",
		"rating": "PG",
		"thumbnail": "src/assets/thumbnails/ss/isibaya.jpg",
		"slider": ["src/assets/bk2/st1.jpg", "src/assets/bk2/st2.jpg", "src/assets/bk2/st3.jpg"]
	},
	{
		"title": "Living the Dream",
		"synopsis": "Big while making the most out of the little things in life. Claire is his grounded, responsible, regimented (but in a good way) wife",
		"year": 2016,
		"runningtime": "60",
		"rating": "PG-17",
		"thumbnail": "src/assets/thumbnails/ss/living.jpg",
		"slider": ["src/assets/bk2/wc1.jpg", "src/assets/bk2/wc2.jpg", "src/assets/bk2/wc3.jpg"]

	},
	{
		"title": "The Leftovers",
		"synopsis": "Leonard and Sheldon are brilliant physicists - geniuses in the laboratory, but socially challenged everywhere else. Enter beautiful, street-smart neighbor, Penny, who aims to teach them a thing or two about life",
		"year": 2001,
		"runningtime": "160",
		"rating": "PG",
		"thumbnail": "src/assets/thumbnails/ss/leftovers.jpg",
		"slider": ["src/assets/bk2/m1.jpg", "src/assets/bk2/m2.jpg", "src/assets/bk2/m3.jpg"]

	},
	{
		"title": "Last Week Tonight",
		"synopsis": "Centers on the symbiotic relationship between charismatic defense attorney Jake Gregorian (Daniel Sunjata) and powerhouse TV producer Julia George (Piper Perabo), as they attempt to control the media, the justice system and ultimately each other",
		"year": 2014,
		"runningtime": "145",
		"rating": "PG-13",
		"thumbnail": "src/assets/thumbnails/ss/ls.jpg",
		"slider": ["src/assets/bk2/ci1.jpg", "src/assets/bk2/ci2.jpg", "src/assets/bk2/ci3.jpg"]

	},
	{
		"title": "Billions",
		"synopsis": "Set in 2010, the next installment of Fargo will feature an all-new true crime tale centered on Emmit and his slightly younger brother Ray Stussy (Ewan McGregor)",
		"year": 2015,
		"runningtime": "30",
		"rating": "PG",
		"thumbnail": "src/assets/thumbnails/ss/billions.jpg",
		"slider": ["src/assets/bk2/p1.jpg", "src/assets/bk2/p2.jpg", "src/assets/bk2/p3.jpg"]

	},
	{
		"title": "Black ish",
		"synopsis": "Set in 2010, the next installment of Fargo will feature an all-new true crime tale centered on Emmit and his slightly younger brother Ray Stussy (Ewan McGregor)",
		"year": 2015,
		"runningtime": "30",
		"rating": "PG",
		"thumbnail": "src/assets/thumbnails/ss/black.jpg",
		"slider": ["src/assets/bk2/goe1.jpg", "src/assets/bk2/goe2.jpg", "src/assets/bk2/goe3.jpg"]

	}	
]

}]



		